<svg id="emoji" xmlns="http://www.w3.org/2000/svg" width="24" height="24" viewBox="0 0 24 24">
  <g id="Group_4" data-name="Group 4">
    <g id="Group_3" data-name="Group 3">
      <path id="Path_2" data-name="Path 2" d="M12,0A12,12,0,1,0,24,12,12,12,0,0,0,12,0Zm0,22.5A10.5,10.5,0,1,1,22.5,12,10.5,10.5,0,0,1,12,22.5Z"/>
    </g>
  </g>
  <g id="Group_6" data-name="Group 6" transform="translate(7 7)">
    <g id="Group_5" data-name="Group 5">
      <circle id="Ellipse_8" data-name="Ellipse 8" cx="1.5" cy="1.5" r="1.5"/>
    </g>
  </g>
  <g id="Group_8" data-name="Group 8" transform="translate(14 7)">
    <g id="Group_7" data-name="Group 7">
      <circle id="Ellipse_9" data-name="Ellipse 9" cx="1.5" cy="1.5" r="1.5"/>
    </g>
  </g>
  <g id="Group_10" data-name="Group 10" transform="translate(4.406 11.413)">
    <g id="Group_9" data-name="Group 9">
      <path id="Path_3" data-name="Path 3" d="M125.5,256a5.906,5.906,0,0,1-11.812,0H112a7.594,7.594,0,0,0,15.188,0Z" transform="translate(-112 -256)"/>
    </g>
  </g>
</svg>
