<svg xmlns="http://www.w3.org/2000/svg" width="92" height="77.063" viewBox="0 0 92 77.063">
  <defs>
    <style>
      .cls-1 {
        fill: rgba(0, 0, 0, 0.54);
      }
    </style>
  </defs>
  <g id="Group_31" data-name="Group 31" transform="translate(-853 -592)">
    <path id="Path" class="cls-1" d="M13.414,3.354a3.354,3.354,0,1,1,6.707,0V13.414H30.182a3.354,3.354,0,0,1,0,6.707H20.121V30.182a3.354,3.354,0,0,1-6.707,0V20.121H3.354a3.354,3.354,0,1,1,0-6.707H13.414Z" transform="translate(853 592)"/>
    <g id="education" transform="translate(877.883 617.786)">
      <g id="Group_29" data-name="Group 29" transform="translate(0 0)">
        <g id="Group_28" data-name="Group 28" transform="translate(0 0)">
          <path id="Path_1076" data-name="Path 1076" class="cls-1" d="M37.228,35.049h-.006a2.367,2.367,0,0,0-1.683.7,2.391,2.391,0,0,0-.707,1.7V73.465a2.41,2.41,0,0,0,2.4,2.4c5.59.013,14.957,1.179,21.418,7.94V46.116a2.3,2.3,0,0,0-.33-1.216C53.022,36.36,42.831,35.062,37.228,35.049Z" transform="translate(-26.961 -35.049)"/>
          <path id="Path_1077" data-name="Path 1077" class="cls-1" d="M180.573,73.464V37.45a2.392,2.392,0,0,0-.707-1.7,2.368,2.368,0,0,0-1.683-.7h-.006c-5.6.013-15.794,1.311-21.1,9.851a2.3,2.3,0,0,0-.33,1.216V83.805c6.461-6.762,15.828-7.927,21.418-7.94A2.41,2.41,0,0,0,180.573,73.464Z" transform="translate(-121.328 -35.048)"/>
          <path id="Path_1078" data-name="Path 1078" class="cls-1" d="M197.446,71.8H195.7v30.11a6.145,6.145,0,0,1-6.124,6.13c-4.742.011-12.561.938-18.1,6.179,9.577-2.345,19.672-.82,25.426.491a2.4,2.4,0,0,0,2.939-2.34V74.2A2.4,2.4,0,0,0,197.446,71.8Z" transform="translate(-132.73 -63.495)"/>
          <path id="Path_1079" data-name="Path 1079" class="cls-1" d="M4.143,101.911V71.8H2.4A2.4,2.4,0,0,0,0,74.2V112.37a2.4,2.4,0,0,0,2.939,2.34c5.754-1.311,15.849-2.835,25.426-.491-5.537-5.241-13.356-6.168-18.1-6.179A6.144,6.144,0,0,1,4.143,101.911Z" transform="translate(0 -63.495)"/>
        </g>
      </g>
    </g>
  </g>
</svg>
